%!PS-Adobe-3.0
%%Creator: graphviz version 2.40.1 (20161225.0304)
%%Title: g
%%Pages: (atend)
%%BoundingBox: (atend)
%%EndComments
save
%%BeginProlog
/DotDict 200 dict def
DotDict begin

/setupLatin1 {
mark
/EncodingVector 256 array def
 EncodingVector 0

ISOLatin1Encoding 0 255 getinterval putinterval
EncodingVector 45 /hyphen put

% Set up ISO Latin 1 character encoding
/starnetISO {
        dup dup findfont dup length dict begin
        { 1 index /FID ne { def }{ pop pop } ifelse
        } forall
        /Encoding EncodingVector def
        currentdict end definefont
} def
/Times-Roman starnetISO def
/Times-Italic starnetISO def
/Times-Bold starnetISO def
/Times-BoldItalic starnetISO def
/Helvetica starnetISO def
/Helvetica-Oblique starnetISO def
/Helvetica-Bold starnetISO def
/Helvetica-BoldOblique starnetISO def
/Courier starnetISO def
/Courier-Oblique starnetISO def
/Courier-Bold starnetISO def
/Courier-BoldOblique starnetISO def
cleartomark
} bind def

%%BeginResource: procset graphviz 0 0
/coord-font-family /Times-Roman def
/default-font-family /Times-Roman def
/coordfont coord-font-family findfont 8 scalefont def

/InvScaleFactor 1.0 def
/set_scale {
       dup 1 exch div /InvScaleFactor exch def
       scale
} bind def

% styles
/solid { [] 0 setdash } bind def
/dashed { [9 InvScaleFactor mul dup ] 0 setdash } bind def
/dotted { [1 InvScaleFactor mul 6 InvScaleFactor mul] 0 setdash } bind def
/invis {/fill {newpath} def /stroke {newpath} def /show {pop newpath} def} bind def
/bold { 2 setlinewidth } bind def
/filled { } bind def
/unfilled { } bind def
/rounded { } bind def
/diagonals { } bind def
/tapered { } bind def

% hooks for setting color 
/nodecolor { sethsbcolor } bind def
/edgecolor { sethsbcolor } bind def
/graphcolor { sethsbcolor } bind def
/nopcolor {pop pop pop} bind def

/beginpage {	% i j npages
	/npages exch def
	/j exch def
	/i exch def
	/str 10 string def
	npages 1 gt {
		gsave
			coordfont setfont
			0 0 moveto
			(\() show i str cvs show (,) show j str cvs show (\)) show
		grestore
	} if
} bind def

/set_font {
	findfont exch
	scalefont setfont
} def

% draw text fitted to its expected width
/alignedtext {			% width text
	/text exch def
	/width exch def
	gsave
		width 0 gt {
			[] 0 setdash
			text stringwidth pop width exch sub text length div 0 text ashow
		} if
	grestore
} def

/boxprim {				% xcorner ycorner xsize ysize
		4 2 roll
		moveto
		2 copy
		exch 0 rlineto
		0 exch rlineto
		pop neg 0 rlineto
		closepath
} bind def

/ellipse_path {
	/ry exch def
	/rx exch def
	/y exch def
	/x exch def
	matrix currentmatrix
	newpath
	x y translate
	rx ry scale
	0 0 1 0 360 arc
	setmatrix
} bind def

/endpage { showpage } bind def
/showpage { } def

/layercolorseq
	[	% layer color sequence - darkest to lightest
		[0 0 0]
		[.2 .8 .8]
		[.4 .8 .8]
		[.6 .8 .8]
		[.8 .8 .8]
	]
def

/layerlen layercolorseq length def

/setlayer {/maxlayer exch def /curlayer exch def
	layercolorseq curlayer 1 sub layerlen mod get
	aload pop sethsbcolor
	/nodecolor {nopcolor} def
	/edgecolor {nopcolor} def
	/graphcolor {nopcolor} def
} bind def

/onlayer { curlayer ne {invis} if } def

/onlayers {
	/myupper exch def
	/mylower exch def
	curlayer mylower lt
	curlayer myupper gt
	or
	{invis} if
} def

/curlayer 0 def

%%EndResource
%%EndProlog
%%BeginSetup
14 default-font-family set_font
% /arrowlength 10 def
% /arrowwidth 5 def

% make sure pdfmark is harmless for PS-interpreters other than Distiller
/pdfmark where {pop} {userdict /pdfmark /cleartomark load put} ifelse
% make '<<' and '>>' safe on PS Level 1 devices
/languagelevel where {pop languagelevel}{1} ifelse
2 lt {
    userdict (<<) cvn ([) cvn load put
    userdict (>>) cvn ([) cvn load put
} if

%%EndSetup
setupLatin1
%%Page: 1 1
%%PageBoundingBox: 36 36 1175 799
%%PageOrientation: Portrait
<< /PageSize [1175 799] >> setpagedevice
0 0 1 beginpage
gsave
36 36 1139 763 boxprim clip newpath
1 1 set_scale 0 rotate 40 40 translate
[ /CropBox [36 36 1175 799] /PAGES pdfmark
% cluster_input
gsave
1 setlinewidth
0 0 1 graphcolor
newpath 53 599.4879 moveto
53 746.9839 lineto
1087 746.9839 lineto
1087 599.4879 lineto
closepath stroke
0 0 0 graphcolor
14 /Times-Roman set_font
463 731.7839 moveto 214 (MNIST: network architecture) alignedtext
0 0 0 graphcolor
14 /Times-Roman set_font
475 668.7839 moveto 190 (Input Layer \(784 neurons\)) alignedtext
grestore
% cluster_1
gsave
1 setlinewidth
0 0 1 graphcolor
newpath 8 386.9919 moveto
8 471.4879 lineto
1123 471.4879 lineto
1123 386.9919 lineto
closepath stroke
0 0 0 graphcolor
14 /Times-Roman set_font
1010 394.7919 moveto 105 ( \(512 neurons\)) alignedtext
grestore
% cluster_2
gsave
1 setlinewidth
0 0 1 graphcolor
newpath 8 197.496 moveto
8 281.9919 lineto
1123 281.9919 lineto
1123 197.496 lineto
closepath stroke
0 0 0 graphcolor
14 /Times-Roman set_font
1010 205.296 moveto 105 ( \(512 neurons\)) alignedtext
grestore
% cluster_output
gsave
1 setlinewidth
0 0 1 graphcolor
newpath 8 8 moveto
8 92.496 lineto
1123 92.496 lineto
1123 8 lineto
closepath stroke
0 0 0 graphcolor
14 /Times-Roman set_font
469 15.8 moveto 193 (Output Layer \(10 neurons\)) alignedtext
grestore
% 1
gsave
0.40401 0.77451 0.8 nodecolor
619 630.2359 18 18 ellipse_path fill
1 setlinewidth
filled
0.40401 0.77451 0.8 nodecolor
619 630.2359 18 18 ellipse_path stroke
0.40401 0.77451 0.8 nodecolor
14 /Times-Roman set_font
614 626.5359 moveto 10 (1) alignedtext
grestore
% 11
gsave
0.56687 0.76256 0.85882 nodecolor
156 440.7399 22.9987 22.9987 ellipse_path fill
1 setlinewidth
filled
0.56687 0.76256 0.85882 nodecolor
156 440.7399 22.9987 22.9987 ellipse_path stroke
0.56687 0.76256 0.85882 nodecolor
14 /Times-Roman set_font
146.5 437.0399 moveto 19 (11) alignedtext
grestore
% 1->11
gsave
1 setlinewidth
0 0 0.43922 edgecolor
newpath 602.2481 623.3797 moveto
531.3197 594.3502 255.7757 481.576 177.0898 449.3715 curveto
stroke
grestore
% 12
gsave
0.56687 0.76256 0.85882 nodecolor
39 440.7399 22.9987 22.9987 ellipse_path fill
1 setlinewidth
filled
0.56687 0.76256 0.85882 nodecolor
39 440.7399 22.9987 22.9987 ellipse_path stroke
0.56687 0.76256 0.85882 nodecolor
14 /Times-Roman set_font
29.5 437.0399 moveto 19 (12) alignedtext
grestore
% 1->12
gsave
1 setlinewidth
0 0 0.43922 edgecolor
newpath 601.6418 624.5646 moveto
517.6712 597.13 153.8508 478.2636 60.7593 447.8491 curveto
stroke
grestore
% 13
gsave
0.56687 0.76256 0.85882 nodecolor
1092 440.7399 22.9987 22.9987 ellipse_path fill
1 setlinewidth
filled
0.56687 0.76256 0.85882 nodecolor
1092 440.7399 22.9987 22.9987 ellipse_path stroke
0.56687 0.76256 0.85882 nodecolor
14 /Times-Roman set_font
1082.5 437.0399 moveto 19 (13) alignedtext
grestore
% 1->13
gsave
1 setlinewidth
0 0 0.43922 edgecolor
newpath 635.8343 623.4916 moveto
707.916 594.6138 990.5047 481.4015 1070.6848 449.2793 curveto
stroke
grestore
% 14
gsave
0.56687 0.76256 0.85882 nodecolor
975 440.7399 22.9987 22.9987 ellipse_path fill
1 setlinewidth
filled
0.56687 0.76256 0.85882 nodecolor
975 440.7399 22.9987 22.9987 ellipse_path stroke
0.56687 0.76256 0.85882 nodecolor
14 /Times-Roman set_font
965.5 437.0399 moveto 19 (14) alignedtext
grestore
% 1->14
gsave
1 setlinewidth
0 0 0.43922 edgecolor
newpath 635.2217 621.6012 moveto
693.3037 590.6846 890.8327 485.5415 954.8177 451.4828 curveto
stroke
grestore
% 15
gsave
0.56687 0.76256 0.85882 nodecolor
858 440.7399 22.9987 22.9987 ellipse_path fill
1 setlinewidth
filled
0.56687 0.76256 0.85882 nodecolor
858 440.7399 22.9987 22.9987 ellipse_path stroke
0.56687 0.76256 0.85882 nodecolor
14 /Times-Roman set_font
848.5 437.0399 moveto 19 (15) alignedtext
grestore
% 1->15
gsave
1 setlinewidth
0 0 0.43922 edgecolor
newpath 633.2348 618.9495 moveto
674.5373 586.202 794.3647 491.1944 840.0331 454.9853 curveto
stroke
grestore
% 16
gsave
0.56687 0.76256 0.85882 nodecolor
741 440.7399 22.9987 22.9987 ellipse_path fill
1 setlinewidth
filled
0.56687 0.76256 0.85882 nodecolor
741 440.7399 22.9987 22.9987 ellipse_path stroke
0.56687 0.76256 0.85882 nodecolor
14 /Times-Roman set_font
731.5 437.0399 moveto 19 (16) alignedtext
grestore
% 1->16
gsave
1 setlinewidth
0 0 0.43922 edgecolor
newpath 628.7775 615.0489 moveto
650.8294 580.797 704.3998 497.5889 728.6774 459.8799 curveto
stroke
grestore
% 17
gsave
0.56687 0.76256 0.85882 nodecolor
624 440.7399 22.9987 22.9987 ellipse_path fill
1 setlinewidth
filled
0.56687 0.76256 0.85882 nodecolor
624 440.7399 22.9987 22.9987 ellipse_path stroke
0.56687 0.76256 0.85882 nodecolor
14 /Times-Roman set_font
614.5 437.0399 moveto 19 (17) alignedtext
grestore
% 1->17
gsave
1 setlinewidth
0 0 0.43922 edgecolor
newpath 619.4794 612.0662 moveto
620.396 577.3279 622.395 501.5692 623.3991 463.5137 curveto
stroke
grestore
% 18
gsave
0.56687 0.76256 0.85882 nodecolor
507 440.7399 22.9987 22.9987 ellipse_path fill
1 setlinewidth
filled
0.56687 0.76256 0.85882 nodecolor
507 440.7399 22.9987 22.9987 ellipse_path stroke
0.56687 0.76256 0.85882 nodecolor
14 /Times-Roman set_font
497.5 437.0399 moveto 19 (18) alignedtext
grestore
% 1->18
gsave
1 setlinewidth
0 0 0.43922 edgecolor
newpath 609.8346 614.7286 moveto
589.5639 580.4322 540.9602 498.1981 518.6067 460.3776 curveto
stroke
grestore
% 19
gsave
0.56687 0.76256 0.85882 nodecolor
390 440.7399 22.9987 22.9987 ellipse_path fill
1 setlinewidth
filled
0.56687 0.76256 0.85882 nodecolor
390 440.7399 22.9987 22.9987 ellipse_path stroke
0.56687 0.76256 0.85882 nodecolor
14 /Times-Roman set_font
380.5 437.0399 moveto 19 (19) alignedtext
grestore
% 1->19
gsave
1 setlinewidth
0 0 0.43922 edgecolor
newpath 605.0197 618.6673 moveto
565.3026 585.8016 451.83 491.9038 407.7824 455.4547 curveto
stroke
grestore
% 20
gsave
0.56687 0.76256 0.85882 nodecolor
273 440.7399 22.9987 22.9987 ellipse_path fill
1 setlinewidth
filled
0.56687 0.76256 0.85882 nodecolor
273 440.7399 22.9987 22.9987 ellipse_path stroke
0.56687 0.76256 0.85882 nodecolor
14 /Times-Roman set_font
263.5 437.0399 moveto 19 (20) alignedtext
grestore
% 1->20
gsave
1 setlinewidth
0 0 0.43922 edgecolor
newpath 602.7758 621.3503 moveto
545.8603 590.179 355.3599 485.8464 292.9694 451.6767 curveto
stroke
grestore
% 2
gsave
0.40401 0.77451 0.8 nodecolor
511 630.2359 18 18 ellipse_path fill
1 setlinewidth
filled
0.40401 0.77451 0.8 nodecolor
511 630.2359 18 18 ellipse_path stroke
0.40401 0.77451 0.8 nodecolor
14 /Times-Roman set_font
506 626.5359 moveto 10 (2) alignedtext
grestore
% 2->11
gsave
1 setlinewidth
0 0 0.43922 edgecolor
newpath 494.8239 621.6012 moveto
436.9051 590.6846 239.9309 485.5415 176.1256 451.4828 curveto
stroke
grestore
% 2->12
gsave
1 setlinewidth
0 0 0.43922 edgecolor
newpath 494.2013 623.4916 moveto
422.2719 594.6138 140.2807 481.4015 60.2702 449.2793 curveto
stroke
grestore
% 2->13
gsave
1 setlinewidth
0 0 0.43922 edgecolor
newpath 528.3882 624.5646 moveto
612.5035 597.13 976.9512 478.2636 1070.2032 447.8491 curveto
stroke
grestore
% 2->14
gsave
1 setlinewidth
0 0 0.43922 edgecolor
newpath 527.7881 623.3797 moveto
598.8696 594.3502 875.0088 481.576 953.8646 449.3715 curveto
stroke
grestore
% 2->15
gsave
1 setlinewidth
0 0 0.43922 edgecolor
newpath 526.8116 621.6012 moveto
583.2926 590.757 775.0595 486.0336 837.8876 451.7232 curveto
stroke
grestore
% 2->16
gsave
1 setlinewidth
0 0 0.43922 edgecolor
newpath 525.0413 618.6673 moveto
564.9319 585.8016 678.9 491.9038 723.1399 455.4547 curveto
stroke
grestore
% 2->17
gsave
1 setlinewidth
0 0 0.43922 edgecolor
newpath 520.2473 614.7286 moveto
540.6989 580.4322 589.7366 498.1981 612.2897 460.3776 curveto
stroke
grestore
% 2->18
gsave
1 setlinewidth
0 0 0.43922 edgecolor
newpath 510.6165 612.0662 moveto
509.8832 577.3279 508.284 501.5692 507.4807 463.5137 curveto
stroke
grestore
% 2->19
gsave
1 setlinewidth
0 0 0.43922 edgecolor
newpath 501.3026 615.0489 moveto
479.4876 580.8848 426.5724 498.0153 402.4073 460.1708 curveto
stroke
grestore
% 2->20
gsave
1 setlinewidth
0 0 0.43922 edgecolor
newpath 496.8248 618.9495 moveto
455.6951 586.202 336.3691 491.1944 290.8917 454.9853 curveto
stroke
grestore
% 3
gsave
0.40401 0.77451 0.8 nodecolor
403 630.2359 18 18 ellipse_path fill
1 setlinewidth
filled
0.40401 0.77451 0.8 nodecolor
403 630.2359 18 18 ellipse_path stroke
0.40401 0.77451 0.8 nodecolor
14 /Times-Roman set_font
398 626.5359 moveto 10 (3) alignedtext
grestore
% 3->11
gsave
1 setlinewidth
0 0 0.43922 edgecolor
newpath 388.6526 619.2287 moveto
346.2328 586.6847 221.4347 490.9408 174.3036 454.7823 curveto
stroke
grestore
% 3->12
gsave
1 setlinewidth
0 0 0.43922 edgecolor
newpath 386.8897 621.849 moveto
328.0021 591.1925 124.4648 485.2323 59.2642 451.2893 curveto
stroke
grestore
% 3->13
gsave
1 setlinewidth
0 0 0.43922 edgecolor
newpath 420.3762 625.4569 moveto
514.7102 599.5122 964.9479 475.6831 1070.0346 446.7811 curveto
stroke
grestore
% 3->14
gsave
1 setlinewidth
0 0 0.43922 edgecolor
newpath 420.1188 624.5646 moveto
502.8382 597.1608 860.9283 478.5303 953.2307 447.9518 curveto
stroke
grestore
% 3->15
gsave
1 setlinewidth
0 0 0.43922 edgecolor
newpath 419.7333 623.2669 moveto
489.7166 594.1206 758.9152 482.0062 836.7859 449.575 curveto
stroke
grestore
% 3->16
gsave
1 setlinewidth
0 0 0.43922 edgecolor
newpath 418.8491 621.3503 moveto
474.3181 590.2522 659.6714 486.3359 721.061 451.9185 curveto
stroke
grestore
% 3->17
gsave
1 setlinewidth
0 0 0.43922 edgecolor
newpath 416.8245 618.382 moveto
455.3792 585.3235 564.0458 492.1475 606.6009 455.6588 curveto
stroke
grestore
% 3->18
gsave
1 setlinewidth
0 0 0.43922 edgecolor
newpath 411.6881 614.4055 moveto
430.5322 580.07 475.1358 498.7989 495.9479 460.8777 curveto
stroke
grestore
% 3->19
gsave
1 setlinewidth
0 0 0.43922 edgecolor
newpath 401.7535 612.0662 moveto
399.3704 577.3279 394.1731 501.5692 391.5623 463.5137 curveto
stroke
grestore
% 3->20
gsave
1 setlinewidth
0 0 0.43922 edgecolor
newpath 392.7991 615.3664 moveto
369.3954 581.2518 311.871 497.4007 285.9888 459.6732 curveto
stroke
grestore
% 4
gsave
0.40401 0.77451 0.8 nodecolor
295 630.2359 18 18 ellipse_path fill
1 setlinewidth
filled
0.40401 0.77451 0.8 nodecolor
295 630.2359 18 18 ellipse_path stroke
0.40401 0.77451 0.8 nodecolor
14 /Times-Roman set_font
290 626.5359 moveto 10 (4) alignedtext
grestore
% 4->11
gsave
1 setlinewidth
0 0 0.43922 edgecolor
newpath 284.3237 615.6811 moveto
259.3401 581.6215 197.105 496.7775 169.525 459.1782 curveto
stroke
grestore
% 4->12
gsave
1 setlinewidth
0 0 0.43922 edgecolor
newpath 280.5028 619.5048 moveto
236.7133 587.091 105.8393 490.2156 57.3434 454.3181 curveto
stroke
grestore
% 4->13
gsave
1 setlinewidth
0 0 0.43922 edgecolor
newpath 312.7639 626.0123 moveto
417.498 601.1106 953.7746 473.6046 1069.8322 446.0106 curveto
stroke
grestore
% 4->14
gsave
1 setlinewidth
0 0 0.43922 edgecolor
newpath 312.4924 625.3612 moveto
406.2473 599.2345 848.8808 475.8856 953.0213 446.8647 curveto
stroke
grestore
% 4->15
gsave
1 setlinewidth
0 0 0.43922 edgecolor
newpath 312.1569 624.4612 moveto
394.0718 596.89 745.1623 478.7191 836.3113 448.04 curveto
stroke
grestore
% 4->16
gsave
1 setlinewidth
0 0 0.43922 edgecolor
newpath 311.6697 623.1533 moveto
380.6184 593.8584 643.4714 482.1777 719.9867 449.668 curveto
stroke
grestore
% 4->17
gsave
1 setlinewidth
0 0 0.43922 edgecolor
newpath 310.8684 621.0961 moveto
365.2919 589.7495 544.3193 486.634 604.2523 452.1141 curveto
stroke
grestore
% 4->18
gsave
1 setlinewidth
0 0 0.43922 edgecolor
newpath 308.5841 618.0938 moveto
345.6876 584.9289 448.7111 492.8414 489.7789 456.133 curveto
stroke
grestore
% 4->19
gsave
1 setlinewidth
0 0 0.43922 edgecolor
newpath 303.0996 614.0796 moveto
320.3748 579.621 360.8061 498.9728 379.8009 461.0839 curveto
stroke
grestore
% 4->20
gsave
1 setlinewidth
0 0 0.43922 edgecolor
newpath 292.8905 612.0662 moveto
288.8575 577.3279 280.0621 501.5692 275.644 463.5137 curveto
stroke
grestore
% 5
gsave
0.40401 0.77451 0.8 nodecolor
187 630.2359 18 18 ellipse_path fill
1 setlinewidth
filled
0.40401 0.77451 0.8 nodecolor
187 630.2359 18 18 ellipse_path stroke
0.40401 0.77451 0.8 nodecolor
14 /Times-Roman set_font
182 626.5359 moveto 10 (5) alignedtext
grestore
% 5->11
gsave
1 setlinewidth
0 0 0.43922 edgecolor
newpath 184.0836 612.4086 moveto
178.4164 577.7663 165.9272 501.4228 159.6922 463.3096 curveto
stroke
grestore
% 5->12
gsave
1 setlinewidth
0 0 0.43922 edgecolor
newpath 175.8759 615.9929 moveto
149.3221 581.994 82.2731 496.1458 53.0162 458.6859 curveto
stroke
grestore
% 5->13
gsave
1 setlinewidth
0 0 0.43922 edgecolor
newpath 204.6719 626.5356 moveto
318.054 602.7948 942.6102 472.0203 1069.5009 445.4509 curveto
stroke
grestore
% 5->14
gsave
1 setlinewidth
0 0 0.43922 edgecolor
newpath 204.5633 626.0123 moveto
308.0012 601.1379 837.1732 473.8841 952.7036 446.1017 curveto
stroke
grestore
% 5->15
gsave
1 setlinewidth
0 0 0.43922 edgecolor
newpath 204.6027 625.2647 moveto
297.7556 598.9576 732.8373 476.0869 836.0149 446.9487 curveto
stroke
grestore
% 5->16
gsave
1 setlinewidth
0 0 0.43922 edgecolor
newpath 204.1876 624.3568 moveto
285.2777 596.6199 629.4177 478.9067 719.3995 448.1284 curveto
stroke
grestore
% 5->17
gsave
1 setlinewidth
0 0 0.43922 edgecolor
newpath 203.5973 623.0388 moveto
271.4159 593.6307 527.4577 482.6035 602.9364 449.8737 curveto
stroke
grestore
% 5->18
gsave
1 setlinewidth
0 0 0.43922 edgecolor
newpath 202.8688 620.8387 moveto
256.0881 589.3236 428.1862 487.4115 487.0449 452.5568 curveto
stroke
grestore
% 5->19
gsave
1 setlinewidth
0 0 0.43922 edgecolor
newpath 200.3194 617.8025 moveto
236.0433 584.4551 333.9351 493.0752 373.2906 456.3378 curveto
stroke
grestore
% 5->20
gsave
1 setlinewidth
0 0 0.43922 edgecolor
newpath 194.4815 613.7508 moveto
210.1331 579.2635 246.3054 499.56 263.5392 461.5862 curveto
stroke
grestore
% 6
gsave
0.40401 0.77451 0.8 nodecolor
79 630.2359 18 18 ellipse_path fill
1 setlinewidth
filled
0.40401 0.77451 0.8 nodecolor
79 630.2359 18 18 ellipse_path stroke
0.40401 0.77451 0.8 nodecolor
14 /Times-Roman set_font
74 626.5359 moveto 10 (6) alignedtext
grestore
% 6->11
gsave
1 setlinewidth
0 0 0.43922 edgecolor
newpath 85.8332 613.4194 moveto
99.8564 578.9085 131.8637 500.1391 147.3244 462.0905 curveto
stroke
grestore
% 6->12
gsave
1 setlinewidth
0 0 0.43922 edgecolor
newpath 75.2369 612.4086 moveto
67.9049 577.6742 51.7236 501.0164 43.7001 463.0063 curveto
stroke
grestore
% 6->13
gsave
1 setlinewidth
0 0 0.43922 edgecolor
newpath 97.0124 626.8664 moveto
219.7817 603.9007 932.6485 470.5489 1069.3405 444.9787 curveto
stroke
grestore
% 6->14
gsave
1 setlinewidth
0 0 0.43922 edgecolor
newpath 96.8979 626.4506 moveto
210.108 602.5077 826.0527 472.2409 952.3595 445.5282 curveto
stroke
grestore
% 6->15
gsave
1 setlinewidth
0 0 0.43922 edgecolor
newpath 96.7342 625.9219 moveto
199.7796 600.8556 720.8782 474.0955 835.6269 446.1823 curveto
stroke
grestore
% 6->16
gsave
1 setlinewidth
0 0 0.43922 edgecolor
newpath 96.3666 625.2647 moveto
188.168 598.9868 616.5637 476.3595 718.9696 447.046 curveto
stroke
grestore
% 6->17
gsave
1 setlinewidth
0 0 0.43922 edgecolor
newpath 96.2109 624.2517 moveto
176.4561 596.3505 513.6942 479.0931 602.4954 448.217 curveto
stroke
grestore
% 6->18
gsave
1 setlinewidth
0 0 0.43922 edgecolor
newpath 95.5159 622.9235 moveto
162.2664 593.3699 412.0652 482.7721 486.1585 449.9674 curveto
stroke
grestore
% 6->19
gsave
1 setlinewidth
0 0 0.43922 edgecolor
newpath 94.4225 620.8387 moveto
146.0225 589.3983 312.6108 487.8941 370.1977 452.8057 curveto
stroke
grestore
% 6->20
gsave
1 setlinewidth
0 0 0.43922 edgecolor
newpath 92.0301 617.5083 moveto
126.2672 584.0661 218.7259 493.7539 256.5414 456.8164 curveto
stroke
grestore
% 7
gsave
0.40401 0.77451 0.8 nodecolor
1061 630.2359 18 18 ellipse_path fill
1 setlinewidth
filled
0.40401 0.77451 0.8 nodecolor
1061 630.2359 18 18 ellipse_path stroke
0.40401 0.77451 0.8 nodecolor
14 /Times-Roman set_font
1056 626.5359 moveto 10 (7) alignedtext
grestore
% 7->11
gsave
1 setlinewidth
0 0 0.43922 edgecolor
newpath 1043.3281 626.5356 moveto
929.946 602.7948 305.3898 472.0203 178.4991 445.4509 curveto
stroke
grestore
% 7->12
gsave
1 setlinewidth
0 0 0.43922 edgecolor
newpath 1043.2613 626.9468 moveto
920.5383 604.1919 198.5338 470.3202 61.4617 444.9047 curveto
stroke
grestore
% 7->13
gsave
1 setlinewidth
0 0 0.43922 edgecolor
newpath 1063.9164 612.4086 moveto
1069.5836 577.7663 1082.0728 501.4228 1088.3078 463.3096 curveto
stroke
grestore
% 7->14
gsave
1 setlinewidth
0 0 0.43922 edgecolor
newpath 1053.5185 613.7508 moveto
1037.8669 579.2635 1001.6946 499.56 984.4608 461.5862 curveto
stroke
grestore
% 7->15
gsave
1 setlinewidth
0 0 0.43922 edgecolor
newpath 1047.6806 617.8025 moveto
1011.9567 584.4551 914.0649 493.0752 874.7094 456.3378 curveto
stroke
grestore
% 7->16
gsave
1 setlinewidth
0 0 0.43922 edgecolor
newpath 1045.1312 620.8387 moveto
991.9119 589.3236 819.8138 487.4115 760.9551 452.5568 curveto
stroke
grestore
% 7->17
gsave
1 setlinewidth
0 0 0.43922 edgecolor
newpath 1044.4027 623.0388 moveto
976.5841 593.6307 720.5423 482.6035 645.0636 449.8737 curveto
stroke
grestore
% 7->18
gsave
1 setlinewidth
0 0 0.43922 edgecolor
newpath 1043.8124 624.3568 moveto
962.7223 596.6199 618.5823 478.9067 528.6005 448.1284 curveto
stroke
grestore
% 7->19
gsave
1 setlinewidth
0 0 0.43922 edgecolor
newpath 1043.3973 625.2647 moveto
950.2444 598.9576 515.1627 476.0869 411.9851 446.9487 curveto
stroke
grestore
% 7->20
gsave
1 setlinewidth
0 0 0.43922 edgecolor
newpath 1043.4367 626.0123 moveto
939.9988 601.1379 410.8268 473.8841 295.2964 446.1017 curveto
stroke
grestore
% 8
gsave
0.40401 0.77451 0.8 nodecolor
953 630.2359 18 18 ellipse_path fill
1 setlinewidth
filled
0.40401 0.77451 0.8 nodecolor
953 630.2359 18 18 ellipse_path stroke
0.40401 0.77451 0.8 nodecolor
14 /Times-Roman set_font
948 626.5359 moveto 10 (8) alignedtext
grestore
% 8->11
gsave
1 setlinewidth
0 0 0.43922 edgecolor
newpath 935.2361 626.0123 moveto
830.502 601.1106 294.2254 473.6046 178.1678 446.0106 curveto
stroke
grestore
% 8->12
gsave
1 setlinewidth
0 0 0.43922 edgecolor
newpath 935.1523 626.5356 moveto
820.5181 602.7689 188.5021 471.7356 61.3063 445.3646 curveto
stroke
grestore
% 8->13
gsave
1 setlinewidth
0 0 0.43922 edgecolor
newpath 963.6763 615.6811 moveto
988.6599 581.6215 1050.895 496.7775 1078.475 459.1782 curveto
stroke
grestore
% 8->14
gsave
1 setlinewidth
0 0 0.43922 edgecolor
newpath 955.1095 612.0662 moveto
959.1425 577.3279 967.9379 501.5692 972.356 463.5137 curveto
stroke
grestore
% 8->15
gsave
1 setlinewidth
0 0 0.43922 edgecolor
newpath 944.9004 614.0796 moveto
927.6252 579.621 887.1939 498.9728 868.1991 461.0839 curveto
stroke
grestore
% 8->16
gsave
1 setlinewidth
0 0 0.43922 edgecolor
newpath 939.4159 618.0938 moveto
902.3124 584.9289 799.2889 492.8414 758.2211 456.133 curveto
stroke
grestore
% 8->17
gsave
1 setlinewidth
0 0 0.43922 edgecolor
newpath 937.1316 621.0961 moveto
882.7081 589.7495 703.6807 486.634 643.7477 452.1141 curveto
stroke
grestore
% 8->18
gsave
1 setlinewidth
0 0 0.43922 edgecolor
newpath 936.3303 623.1533 moveto
867.3816 593.8584 604.5286 482.1777 528.0133 449.668 curveto
stroke
grestore
% 8->19
gsave
1 setlinewidth
0 0 0.43922 edgecolor
newpath 935.8431 624.4612 moveto
853.9282 596.89 502.8377 478.7191 411.6887 448.04 curveto
stroke
grestore
% 8->20
gsave
1 setlinewidth
0 0 0.43922 edgecolor
newpath 935.5076 625.3612 moveto
841.7527 599.2345 399.1192 475.8856 294.9787 446.8647 curveto
stroke
grestore
% 9
gsave
0.40401 0.77451 0.8 nodecolor
845 630.2359 18 18 ellipse_path fill
1 setlinewidth
filled
0.40401 0.77451 0.8 nodecolor
845 630.2359 18 18 ellipse_path stroke
0.40401 0.77451 0.8 nodecolor
14 /Times-Roman set_font
840 626.5359 moveto 10 (9) alignedtext
grestore
% 9->11
gsave
1 setlinewidth
0 0 0.43922 edgecolor
newpath 827.6238 625.4569 moveto
733.2898 599.5122 283.0521 475.6831 177.9654 446.7811 curveto
stroke
grestore
% 9->12
gsave
1 setlinewidth
0 0 0.43922 edgecolor
newpath 827.416 626.1017 moveto
722.4384 601.4208 179.0704 473.6714 61.4645 446.0215 curveto
stroke
grestore
% 9->13
gsave
1 setlinewidth
0 0 0.43922 edgecolor
newpath 859.3474 619.2287 moveto
901.7672 586.6847 1026.5653 490.9408 1073.6964 454.7823 curveto
stroke
grestore
% 9->14
gsave
1 setlinewidth
0 0 0.43922 edgecolor
newpath 855.2009 615.3664 moveto
878.6046 581.2518 936.129 497.4007 962.0112 459.6732 curveto
stroke
grestore
% 9->15
gsave
1 setlinewidth
0 0 0.43922 edgecolor
newpath 846.2465 612.0662 moveto
848.6296 577.3279 853.8269 501.5692 856.4377 463.5137 curveto
stroke
grestore
% 9->16
gsave
1 setlinewidth
0 0 0.43922 edgecolor
newpath 836.3119 614.4055 moveto
817.4678 580.07 772.8642 498.7989 752.0521 460.8777 curveto
stroke
grestore
% 9->17
gsave
1 setlinewidth
0 0 0.43922 edgecolor
newpath 831.1755 618.382 moveto
792.6208 585.3235 683.9542 492.1475 641.3991 455.6588 curveto
stroke
grestore
% 9->18
gsave
1 setlinewidth
0 0 0.43922 edgecolor
newpath 829.1509 621.3503 moveto
773.6819 590.2522 588.3286 486.3359 526.939 451.9185 curveto
stroke
grestore
% 9->19
gsave
1 setlinewidth
0 0 0.43922 edgecolor
newpath 828.2667 623.2669 moveto
758.2834 594.1206 489.0848 482.0062 411.2141 449.575 curveto
stroke
grestore
% 9->20
gsave
1 setlinewidth
0 0 0.43922 edgecolor
newpath 827.8812 624.5646 moveto
745.1618 597.1608 387.0717 478.5303 294.7693 447.9518 curveto
stroke
grestore
% 10
gsave
0.40401 0.77451 0.8 nodecolor
732 630.2359 22.9987 22.9987 ellipse_path fill
1 setlinewidth
filled
0.40401 0.77451 0.8 nodecolor
732 630.2359 22.9987 22.9987 ellipse_path stroke
0.40401 0.77451 0.8 nodecolor
14 /Times-Roman set_font
722.5 626.5359 moveto 19 (10) alignedtext
grestore
% 10->11
gsave
1 setlinewidth
0 0 0.43922 edgecolor
newpath 710.1235 623.0388 moveto
618.8838 593.0222 269.1792 477.9743 177.8984 447.9442 curveto
stroke
grestore
% 10->12
gsave
1 setlinewidth
0 0 0.43922 edgecolor
newpath 709.7275 624.1456 moveto
605.3581 595.6065 165.3813 475.298 61.1896 446.8075 curveto
stroke
grestore
% 10->13
gsave
1 setlinewidth
0 0 0.43922 edgecolor
newpath 752.3866 619.5048 moveto
815.7506 586.1514 1008.7791 484.5455 1071.837 451.3533 curveto
stroke
grestore
% 10->14
gsave
1 setlinewidth
0 0 0.43922 edgecolor
newpath 750.2645 615.9929 moveto
795.4082 580.789 911.8374 489.9953 956.855 454.8897 curveto
stroke
grestore
% 10->15
gsave
1 setlinewidth
0 0 0.43922 edgecolor
newpath 744.775 611.0232 moveto
768.9873 574.6094 821.2855 495.9562 845.3786 459.7217 curveto
stroke
grestore
% 10->16
gsave
1 setlinewidth
0 0 0.43922 edgecolor
newpath 733.0856 607.3782 moveto
734.8155 570.9562 738.1783 500.1515 739.9105 463.6786 curveto
stroke
grestore
% 10->17
gsave
1 setlinewidth
0 0 0.43922 edgecolor
newpath 720.6462 610.3146 moveto
699.904 573.9204 656.1133 497.0857 635.3637 460.6786 curveto
stroke
grestore
% 10->18
gsave
1 setlinewidth
0 0 0.43922 edgecolor
newpath 714.3446 615.3664 moveto
672.2843 579.943 566.5508 490.8939 524.5734 455.5403 curveto
stroke
grestore
% 10->19
gsave
1 setlinewidth
0 0 0.43922 edgecolor
newpath 711.6305 618.9495 moveto
650.8026 585.2459 470.9512 485.5935 410.2627 451.9671 curveto
stroke
grestore
% 10->20
gsave
1 setlinewidth
0 0 0.43922 edgecolor
newpath 710.782 621.4761 moveto
633.9985 589.7764 371.1032 481.2414 294.2569 449.5157 curveto
stroke
grestore
% 21
gsave
0.56687 0.76256 0.85882 nodecolor
156 251.2439 22.9987 22.9987 ellipse_path fill
1 setlinewidth
filled
0.56687 0.76256 0.85882 nodecolor
156 251.2439 22.9987 22.9987 ellipse_path stroke
0.56687 0.76256 0.85882 nodecolor
14 /Times-Roman set_font
146.5 247.5439 moveto 19 (21) alignedtext
grestore
% 11->21
gsave
1 setlinewidth
0 0 0.43922 edgecolor
newpath 156 417.8823 moveto
156 381.4603 156 310.6556 156 274.1827 curveto
stroke
grestore
% 22
gsave
0.56687 0.76256 0.85882 nodecolor
39 251.2439 22.9987 22.9987 ellipse_path fill
1 setlinewidth
filled
0.56687 0.76256 0.85882 nodecolor
39 251.2439 22.9987 22.9987 ellipse_path stroke
0.56687 0.76256 0.85882 nodecolor
14 /Times-Roman set_font
29.5 247.5439 moveto 19 (22) alignedtext
grestore
% 11->22
gsave
1 setlinewidth
0 0 0.43922 edgecolor
newpath 143.9196 421.1742 moveto
121.4413 384.7678 73.4432 307.0289 51.0147 270.7032 curveto
stroke
grestore
% 23
gsave
0.56687 0.76256 0.85882 nodecolor
1092 251.2439 22.9987 22.9987 ellipse_path fill
1 setlinewidth
filled
0.56687 0.76256 0.85882 nodecolor
1092 251.2439 22.9987 22.9987 ellipse_path stroke
0.56687 0.76256 0.85882 nodecolor
14 /Times-Roman set_font
1082.5 247.5439 moveto 19 (23) alignedtext
grestore
% 11->23
gsave
1 setlinewidth
0 0 0.43922 edgecolor
newpath 178.6734 436.1496 moveto
307.0982 410.1496 941.9877 281.6144 1069.625 255.7738 curveto
stroke
grestore
% 24
gsave
0.56687 0.76256 0.85882 nodecolor
975 251.2439 22.9987 22.9987 ellipse_path fill
1 setlinewidth
filled
0.56687 0.76256 0.85882 nodecolor
975 251.2439 22.9987 22.9987 ellipse_path stroke
0.56687 0.76256 0.85882 nodecolor
14 /Times-Roman set_font
965.5 247.5439 moveto 19 (24) alignedtext
grestore
% 11->24
gsave
1 setlinewidth
0 0 0.43922 edgecolor
newpath 178.331 435.5731 moveto
295.2362 408.5242 835.8321 283.4439 952.689 256.4062 curveto
stroke
grestore
% 25
gsave
0.56687 0.76256 0.85882 nodecolor
858 251.2439 22.9987 22.9987 ellipse_path fill
1 setlinewidth
filled
0.56687 0.76256 0.85882 nodecolor
858 251.2439 22.9987 22.9987 ellipse_path stroke
0.56687 0.76256 0.85882 nodecolor
14 /Times-Roman set_font
848.5 247.5439 moveto 19 (25) alignedtext
grestore
% 11->25
gsave
1 setlinewidth
0 0 0.43922 edgecolor
newpath 178.1689 434.7557 moveto
283.2785 406.3827 730.7045 285.6057 835.8257 257.2296 curveto
stroke
grestore
% 26
gsave
0.56687 0.76256 0.85882 nodecolor
741 251.2439 22.9987 22.9987 ellipse_path fill
1 setlinewidth
filled
0.56687 0.76256 0.85882 nodecolor
741 251.2439 22.9987 22.9987 ellipse_path stroke
0.56687 0.76256 0.85882 nodecolor
14 /Times-Roman set_font
731.5 247.5439 moveto 19 (26) alignedtext
grestore
% 11->26
gsave
1 setlinewidth
0 0 0.43922 edgecolor
newpath 177.865 433.6573 moveto
270.1689 403.7578 627.4179 288.036 719.336 258.2614 curveto
stroke
grestore
% 27
gsave
0.56687 0.76256 0.85882 nodecolor
624 251.2439 22.9987 22.9987 ellipse_path fill
1 setlinewidth
filled
0.56687 0.76256 0.85882 nodecolor
624 251.2439 22.9987 22.9987 ellipse_path stroke
0.56687 0.76256 0.85882 nodecolor
14 /Times-Roman set_font
614.5 247.5439 moveto 19 (27) alignedtext
grestore
% 11->27
gsave
1 setlinewidth
0 0 0.43922 edgecolor
newpath 177.3251 432.1053 moveto
255.3789 400.5008 524.9984 291.3303 602.8178 259.8207 curveto
stroke
grestore
% 28
gsave
0.56687 0.76256 0.85882 nodecolor
507 251.2439 22.9987 22.9987 ellipse_path fill
1 setlinewidth
filled
0.56687 0.76256 0.85882 nodecolor
507 251.2439 22.9987 22.9987 ellipse_path stroke
0.56687 0.76256 0.85882 nodecolor
14 /Times-Roman set_font
497.5 247.5439 moveto 19 (28) alignedtext
grestore
% 11->28
gsave
1 setlinewidth
0 0 0.43922 edgecolor
newpath 176.132 429.8712 moveto
238.0417 396.4477 425.1495 295.433 486.9494 262.0688 curveto
stroke
grestore
% 29
gsave
0.56687 0.76256 0.85882 nodecolor
390 251.2439 22.9987 22.9987 ellipse_path fill
1 setlinewidth
filled
0.56687 0.76256 0.85882 nodecolor
390 251.2439 22.9987 22.9987 ellipse_path stroke
0.56687 0.76256 0.85882 nodecolor
14 /Times-Roman set_font
380.5 247.5439 moveto 19 (29) alignedtext
grestore
% 11->29
gsave
1 setlinewidth
0 0 0.43922 edgecolor
newpath 173.973 426.1851 moveto
217.637 390.8255 328.8908 300.7309 372.286 265.5889 curveto
stroke
grestore
% 30
gsave
0.56687 0.76256 0.85882 nodecolor
273 251.2439 22.9987 22.9987 ellipse_path fill
1 setlinewidth
filled
0.56687 0.76256 0.85882 nodecolor
273 251.2439 22.9987 22.9987 ellipse_path stroke
0.56687 0.76256 0.85882 nodecolor
14 /Times-Roman set_font
263.5 247.5439 moveto 19 (30) alignedtext
grestore
% 11->30
gsave
1 setlinewidth
0 0 0.43922 edgecolor
newpath 168.0804 421.1742 moveto
190.5587 384.7678 238.5568 307.0289 260.9853 270.7032 curveto
stroke
grestore
% 12->21
gsave
1 setlinewidth
0 0 0.43922 edgecolor
newpath 51.0804 421.1742 moveto
73.5587 384.7678 121.5568 307.0289 143.9853 270.7032 curveto
stroke
grestore
% 12->22
gsave
1 setlinewidth
0 0 0.43922 edgecolor
newpath 39 417.8823 moveto
39 381.4603 39 310.6556 39 274.1827 curveto
stroke
grestore
% 12->23
gsave
1 setlinewidth
0 0 0.43922 edgecolor
newpath 61.4806 436.6943 moveto
199.4817 411.8599 930.605 280.2883 1069.2826 255.3321 curveto
stroke
grestore
% 12->24
gsave
1 setlinewidth
0 0 0.43922 edgecolor
newpath 61.6734 436.1496 moveto
190.0982 410.1496 824.9877 281.6144 952.625 255.7738 curveto
stroke
grestore
% 12->25
gsave
1 setlinewidth
0 0 0.43922 edgecolor
newpath 61.331 435.5731 moveto
178.2362 408.5242 718.8321 283.4439 835.689 256.4062 curveto
stroke
grestore
% 12->26
gsave
1 setlinewidth
0 0 0.43922 edgecolor
newpath 61.1689 434.7557 moveto
166.2785 406.3827 613.7045 285.6057 718.8257 257.2296 curveto
stroke
grestore
% 12->27
gsave
1 setlinewidth
0 0 0.43922 edgecolor
newpath 60.865 433.6573 moveto
153.1689 403.7578 510.4179 288.036 602.336 258.2614 curveto
stroke
grestore
% 12->28
gsave
1 setlinewidth
0 0 0.43922 edgecolor
newpath 60.3251 432.1053 moveto
138.3789 400.5008 407.9984 291.3303 485.8178 259.8207 curveto
stroke
grestore
% 12->29
gsave
1 setlinewidth
0 0 0.43922 edgecolor
newpath 59.132 429.8712 moveto
121.0417 396.4477 308.1495 295.433 369.9494 262.0688 curveto
stroke
grestore
% 12->30
gsave
1 setlinewidth
0 0 0.43922 edgecolor
newpath 56.973 426.1851 moveto
100.637 390.8255 211.8908 300.7309 255.286 265.5889 curveto
stroke
grestore
% 13->21
gsave
1 setlinewidth
0 0 0.43922 edgecolor
newpath 1069.3266 436.1496 moveto
940.9018 410.1496 306.0123 281.6144 178.375 255.7738 curveto
stroke
grestore
% 13->22
gsave
1 setlinewidth
0 0 0.43922 edgecolor
newpath 1069.5194 436.6943 moveto
931.5183 411.8599 200.395 280.2883 61.7174 255.3321 curveto
stroke
grestore
% 13->23
gsave
1 setlinewidth
0 0 0.43922 edgecolor
newpath 1092 417.8823 moveto
1092 381.4603 1092 310.6556 1092 274.1827 curveto
stroke
grestore
% 13->24
gsave
1 setlinewidth
0 0 0.43922 edgecolor
newpath 1079.9196 421.1742 moveto
1057.4413 384.7678 1009.4432 307.0289 987.0147 270.7032 curveto
stroke
grestore
% 13->25
gsave
1 setlinewidth
0 0 0.43922 edgecolor
newpath 1074.027 426.1851 moveto
1030.363 390.8255 919.1092 300.7309 875.714 265.5889 curveto
stroke
grestore
% 13->26
gsave
1 setlinewidth
0 0 0.43922 edgecolor
newpath 1071.868 429.8712 moveto
1009.9583 396.4477 822.8505 295.433 761.0506 262.0688 curveto
stroke
grestore
% 13->27
gsave
1 setlinewidth
0 0 0.43922 edgecolor
newpath 1070.6749 432.1053 moveto
992.6211 400.5008 723.0016 291.3303 645.1822 259.8207 curveto
stroke
grestore
% 13->28
gsave
1 setlinewidth
0 0 0.43922 edgecolor
newpath 1070.135 433.6573 moveto
977.8311 403.7578 620.5821 288.036 528.664 258.2614 curveto
stroke
grestore
% 13->29
gsave
1 setlinewidth
0 0 0.43922 edgecolor
newpath 1069.8311 434.7557 moveto
964.7215 406.3827 517.2955 285.6057 412.1743 257.2296 curveto
stroke
grestore
% 13->30
gsave
1 setlinewidth
0 0 0.43922 edgecolor
newpath 1069.669 435.5731 moveto
952.7638 408.5242 412.1679 283.4439 295.311 256.4062 curveto
stroke
grestore
% 14->21
gsave
1 setlinewidth
0 0 0.43922 edgecolor
newpath 952.669 435.5731 moveto
835.7638 408.5242 295.1679 283.4439 178.311 256.4062 curveto
stroke
grestore
% 14->22
gsave
1 setlinewidth
0 0 0.43922 edgecolor
newpath 952.3266 436.1496 moveto
823.9018 410.1496 189.0123 281.6144 61.375 255.7738 curveto
stroke
grestore
% 14->23
gsave
1 setlinewidth
0 0 0.43922 edgecolor
newpath 987.0804 421.1742 moveto
1009.5587 384.7678 1057.5568 307.0289 1079.9853 270.7032 curveto
stroke
grestore
% 14->24
gsave
1 setlinewidth
0 0 0.43922 edgecolor
newpath 975 417.8823 moveto
975 381.4603 975 310.6556 975 274.1827 curveto
stroke
grestore
% 14->25
gsave
1 setlinewidth
0 0 0.43922 edgecolor
newpath 962.9196 421.1742 moveto
940.4413 384.7678 892.4432 307.0289 870.0147 270.7032 curveto
stroke
grestore
% 14->26
gsave
1 setlinewidth
0 0 0.43922 edgecolor
newpath 957.027 426.1851 moveto
913.363 390.8255 802.1092 300.7309 758.714 265.5889 curveto
stroke
grestore
% 14->27
gsave
1 setlinewidth
0 0 0.43922 edgecolor
newpath 954.868 429.8712 moveto
892.9583 396.4477 705.8505 295.433 644.0506 262.0688 curveto
stroke
grestore
% 14->28
gsave
1 setlinewidth
0 0 0.43922 edgecolor
newpath 953.6749 432.1053 moveto
875.6211 400.5008 606.0016 291.3303 528.1822 259.8207 curveto
stroke
grestore
% 14->29
gsave
1 setlinewidth
0 0 0.43922 edgecolor
newpath 953.135 433.6573 moveto
860.8311 403.7578 503.5821 288.036 411.664 258.2614 curveto
stroke
grestore
% 14->30
gsave
1 setlinewidth
0 0 0.43922 edgecolor
newpath 952.8311 434.7557 moveto
847.7215 406.3827 400.2955 285.6057 295.1743 257.2296 curveto
stroke
grestore
% 15->21
gsave
1 setlinewidth
0 0 0.43922 edgecolor
newpath 835.8311 434.7557 moveto
730.7215 406.3827 283.2955 285.6057 178.1743 257.2296 curveto
stroke
grestore
% 15->22
gsave
1 setlinewidth
0 0 0.43922 edgecolor
newpath 835.669 435.5731 moveto
718.7638 408.5242 178.1679 283.4439 61.311 256.4062 curveto
stroke
grestore
% 15->23
gsave
1 setlinewidth
0 0 0.43922 edgecolor
newpath 875.973 426.1851 moveto
919.637 390.8255 1030.8908 300.7309 1074.286 265.5889 curveto
stroke
grestore
% 15->24
gsave
1 setlinewidth
0 0 0.43922 edgecolor
newpath 870.0804 421.1742 moveto
892.5587 384.7678 940.5568 307.0289 962.9853 270.7032 curveto
stroke
grestore
% 15->25
gsave
1 setlinewidth
0 0 0.43922 edgecolor
newpath 858 417.8823 moveto
858 381.4603 858 310.6556 858 274.1827 curveto
stroke
grestore
% 15->26
gsave
1 setlinewidth
0 0 0.43922 edgecolor
newpath 845.9196 421.1742 moveto
823.4413 384.7678 775.4432 307.0289 753.0147 270.7032 curveto
stroke
grestore
% 15->27
gsave
1 setlinewidth
0 0 0.43922 edgecolor
newpath 840.027 426.1851 moveto
796.363 390.8255 685.1092 300.7309 641.714 265.5889 curveto
stroke
grestore
% 15->28
gsave
1 setlinewidth
0 0 0.43922 edgecolor
newpath 837.868 429.8712 moveto
775.9583 396.4477 588.8505 295.433 527.0506 262.0688 curveto
stroke
grestore
% 15->29
gsave
1 setlinewidth
0 0 0.43922 edgecolor
newpath 836.6749 432.1053 moveto
758.6211 400.5008 489.0016 291.3303 411.1822 259.8207 curveto
stroke
grestore
% 15->30
gsave
1 setlinewidth
0 0 0.43922 edgecolor
newpath 836.135 433.6573 moveto
743.8311 403.7578 386.5821 288.036 294.664 258.2614 curveto
stroke
grestore
% 16->21
gsave
1 setlinewidth
0 0 0.43922 edgecolor
newpath 719.135 433.6573 moveto
626.8311 403.7578 269.5821 288.036 177.664 258.2614 curveto
stroke
grestore
% 16->22
gsave
1 setlinewidth
0 0 0.43922 edgecolor
newpath 718.8311 434.7557 moveto
613.7215 406.3827 166.2955 285.6057 61.1743 257.2296 curveto
stroke
grestore
% 16->23
gsave
1 setlinewidth
0 0 0.43922 edgecolor
newpath 761.132 429.8712 moveto
823.0417 396.4477 1010.1495 295.433 1071.9494 262.0688 curveto
stroke
grestore
% 16->24
gsave
1 setlinewidth
0 0 0.43922 edgecolor
newpath 758.973 426.1851 moveto
802.637 390.8255 913.8908 300.7309 957.286 265.5889 curveto
stroke
grestore
% 16->25
gsave
1 setlinewidth
0 0 0.43922 edgecolor
newpath 753.0804 421.1742 moveto
775.5587 384.7678 823.5568 307.0289 845.9853 270.7032 curveto
stroke
grestore
% 16->26
gsave
1 setlinewidth
0 0 0.43922 edgecolor
newpath 741 417.8823 moveto
741 381.4603 741 310.6556 741 274.1827 curveto
stroke
grestore
% 16->27
gsave
1 setlinewidth
0 0 0.43922 edgecolor
newpath 728.9196 421.1742 moveto
706.4413 384.7678 658.4432 307.0289 636.0147 270.7032 curveto
stroke
grestore
% 16->28
gsave
1 setlinewidth
0 0 0.43922 edgecolor
newpath 723.027 426.1851 moveto
679.363 390.8255 568.1092 300.7309 524.714 265.5889 curveto
stroke
grestore
% 16->29
gsave
1 setlinewidth
0 0 0.43922 edgecolor
newpath 720.868 429.8712 moveto
658.9583 396.4477 471.8505 295.433 410.0506 262.0688 curveto
stroke
grestore
% 16->30
gsave
1 setlinewidth
0 0 0.43922 edgecolor
newpath 719.6749 432.1053 moveto
641.6211 400.5008 372.0016 291.3303 294.1822 259.8207 curveto
stroke
grestore
% 17->21
gsave
1 setlinewidth
0 0 0.43922 edgecolor
newpath 602.6749 432.1053 moveto
524.6211 400.5008 255.0016 291.3303 177.1822 259.8207 curveto
stroke
grestore
% 17->22
gsave
1 setlinewidth
0 0 0.43922 edgecolor
newpath 602.135 433.6573 moveto
509.8311 403.7578 152.5821 288.036 60.664 258.2614 curveto
stroke
grestore
% 17->23
gsave
1 setlinewidth
0 0 0.43922 edgecolor
newpath 645.3251 432.1053 moveto
723.3789 400.5008 992.9984 291.3303 1070.8178 259.8207 curveto
stroke
grestore
% 17->24
gsave
1 setlinewidth
0 0 0.43922 edgecolor
newpath 644.132 429.8712 moveto
706.0417 396.4477 893.1495 295.433 954.9494 262.0688 curveto
stroke
grestore
% 17->25
gsave
1 setlinewidth
0 0 0.43922 edgecolor
newpath 641.973 426.1851 moveto
685.637 390.8255 796.8908 300.7309 840.286 265.5889 curveto
stroke
grestore
% 17->26
gsave
1 setlinewidth
0 0 0.43922 edgecolor
newpath 636.0804 421.1742 moveto
658.5587 384.7678 706.5568 307.0289 728.9853 270.7032 curveto
stroke
grestore
% 17->27
gsave
1 setlinewidth
0 0 0.43922 edgecolor
newpath 624 417.8823 moveto
624 381.4603 624 310.6556 624 274.1827 curveto
stroke
grestore
% 17->28
gsave
1 setlinewidth
0 0 0.43922 edgecolor
newpath 611.9196 421.1742 moveto
589.4413 384.7678 541.4432 307.0289 519.0147 270.7032 curveto
stroke
grestore
% 17->29
gsave
1 setlinewidth
0 0 0.43922 edgecolor
newpath 606.027 426.1851 moveto
562.363 390.8255 451.1092 300.7309 407.714 265.5889 curveto
stroke
grestore
% 17->30
gsave
1 setlinewidth
0 0 0.43922 edgecolor
newpath 603.868 429.8712 moveto
541.9583 396.4477 354.8505 295.433 293.0506 262.0688 curveto
stroke
grestore
% 18->21
gsave
1 setlinewidth
0 0 0.43922 edgecolor
newpath 486.868 429.8712 moveto
424.9583 396.4477 237.8505 295.433 176.0506 262.0688 curveto
stroke
grestore
% 18->22
gsave
1 setlinewidth
0 0 0.43922 edgecolor
newpath 485.6749 432.1053 moveto
407.6211 400.5008 138.0016 291.3303 60.1822 259.8207 curveto
stroke
grestore
% 18->23
gsave
1 setlinewidth
0 0 0.43922 edgecolor
newpath 528.865 433.6573 moveto
621.1689 403.7578 978.4179 288.036 1070.336 258.2614 curveto
stroke
grestore
% 18->24
gsave
1 setlinewidth
0 0 0.43922 edgecolor
newpath 528.3251 432.1053 moveto
606.3789 400.5008 875.9984 291.3303 953.8178 259.8207 curveto
stroke
grestore
% 18->25
gsave
1 setlinewidth
0 0 0.43922 edgecolor
newpath 527.132 429.8712 moveto
589.0417 396.4477 776.1495 295.433 837.9494 262.0688 curveto
stroke
grestore
% 18->26
gsave
1 setlinewidth
0 0 0.43922 edgecolor
newpath 524.973 426.1851 moveto
568.637 390.8255 679.8908 300.7309 723.286 265.5889 curveto
stroke
grestore
% 18->27
gsave
1 setlinewidth
0 0 0.43922 edgecolor
newpath 519.0804 421.1742 moveto
541.5587 384.7678 589.5568 307.0289 611.9853 270.7032 curveto
stroke
grestore
% 18->28
gsave
1 setlinewidth
0 0 0.43922 edgecolor
newpath 507 417.8823 moveto
507 381.4603 507 310.6556 507 274.1827 curveto
stroke
grestore
% 18->29
gsave
1 setlinewidth
0 0 0.43922 edgecolor
newpath 494.9196 421.1742 moveto
472.4413 384.7678 424.4432 307.0289 402.0147 270.7032 curveto
stroke
grestore
% 18->30
gsave
1 setlinewidth
0 0 0.43922 edgecolor
newpath 489.027 426.1851 moveto
445.363 390.8255 334.1092 300.7309 290.714 265.5889 curveto
stroke
grestore
% 19->21
gsave
1 setlinewidth
0 0 0.43922 edgecolor
newpath 372.027 426.1851 moveto
328.363 390.8255 217.1092 300.7309 173.714 265.5889 curveto
stroke
grestore
% 19->22
gsave
1 setlinewidth
0 0 0.43922 edgecolor
newpath 369.868 429.8712 moveto
307.9583 396.4477 120.8505 295.433 59.0506 262.0688 curveto
stroke
grestore
% 19->23
gsave
1 setlinewidth
0 0 0.43922 edgecolor
newpath 412.1689 434.7557 moveto
517.2785 406.3827 964.7045 285.6057 1069.8257 257.2296 curveto
stroke
grestore
% 19->24
gsave
1 setlinewidth
0 0 0.43922 edgecolor
newpath 411.865 433.6573 moveto
504.1689 403.7578 861.4179 288.036 953.336 258.2614 curveto
stroke
grestore
% 19->25
gsave
1 setlinewidth
0 0 0.43922 edgecolor
newpath 411.3251 432.1053 moveto
489.3789 400.5008 758.9984 291.3303 836.8178 259.8207 curveto
stroke
grestore
% 19->26
gsave
1 setlinewidth
0 0 0.43922 edgecolor
newpath 410.132 429.8712 moveto
472.0417 396.4477 659.1495 295.433 720.9494 262.0688 curveto
stroke
grestore
% 19->27
gsave
1 setlinewidth
0 0 0.43922 edgecolor
newpath 407.973 426.1851 moveto
451.637 390.8255 562.8908 300.7309 606.286 265.5889 curveto
stroke
grestore
% 19->28
gsave
1 setlinewidth
0 0 0.43922 edgecolor
newpath 402.0804 421.1742 moveto
424.5587 384.7678 472.5568 307.0289 494.9853 270.7032 curveto
stroke
grestore
% 19->29
gsave
1 setlinewidth
0 0 0.43922 edgecolor
newpath 390 417.8823 moveto
390 381.4603 390 310.6556 390 274.1827 curveto
stroke
grestore
% 19->30
gsave
1 setlinewidth
0 0 0.43922 edgecolor
newpath 377.9196 421.1742 moveto
355.4413 384.7678 307.4432 307.0289 285.0147 270.7032 curveto
stroke
grestore
% 20->21
gsave
1 setlinewidth
0 0 0.43922 edgecolor
newpath 260.9196 421.1742 moveto
238.4413 384.7678 190.4432 307.0289 168.0147 270.7032 curveto
stroke
grestore
% 20->22
gsave
1 setlinewidth
0 0 0.43922 edgecolor
newpath 255.027 426.1851 moveto
211.363 390.8255 100.1092 300.7309 56.714 265.5889 curveto
stroke
grestore
% 20->23
gsave
1 setlinewidth
0 0 0.43922 edgecolor
newpath 295.331 435.5731 moveto
412.2362 408.5242 952.8321 283.4439 1069.689 256.4062 curveto
stroke
grestore
% 20->24
gsave
1 setlinewidth
0 0 0.43922 edgecolor
newpath 295.1689 434.7557 moveto
400.2785 406.3827 847.7045 285.6057 952.8257 257.2296 curveto
stroke
grestore
% 20->25
gsave
1 setlinewidth
0 0 0.43922 edgecolor
newpath 294.865 433.6573 moveto
387.1689 403.7578 744.4179 288.036 836.336 258.2614 curveto
stroke
grestore
% 20->26
gsave
1 setlinewidth
0 0 0.43922 edgecolor
newpath 294.3251 432.1053 moveto
372.3789 400.5008 641.9984 291.3303 719.8178 259.8207 curveto
stroke
grestore
% 20->27
gsave
1 setlinewidth
0 0 0.43922 edgecolor
newpath 293.132 429.8712 moveto
355.0417 396.4477 542.1495 295.433 603.9494 262.0688 curveto
stroke
grestore
% 20->28
gsave
1 setlinewidth
0 0 0.43922 edgecolor
newpath 290.973 426.1851 moveto
334.637 390.8255 445.8908 300.7309 489.286 265.5889 curveto
stroke
grestore
% 20->29
gsave
1 setlinewidth
0 0 0.43922 edgecolor
newpath 285.0804 421.1742 moveto
307.5587 384.7678 355.5568 307.0289 377.9853 270.7032 curveto
stroke
grestore
% 20->30
gsave
1 setlinewidth
0 0 0.43922 edgecolor
newpath 273 417.8823 moveto
273 381.4603 273 310.6556 273 274.1827 curveto
stroke
grestore
% 31
gsave
0.015595 0.74026 0.90588 nodecolor
156 61.748 22.9987 22.9987 ellipse_path fill
1 setlinewidth
filled
0.015595 0.74026 0.90588 nodecolor
156 61.748 22.9987 22.9987 ellipse_path stroke
0.015595 0.74026 0.90588 nodecolor
14 /Times-Roman set_font
146.5 58.048 moveto 19 (31) alignedtext
grestore
% 21->31
gsave
1 setlinewidth
0 0 0.43922 edgecolor
newpath 156 228.3863 moveto
156 191.9643 156 121.1596 156 84.6867 curveto
stroke
grestore
% 32
gsave
0.015595 0.74026 0.90588 nodecolor
39 61.748 22.9987 22.9987 ellipse_path fill
1 setlinewidth
filled
0.015595 0.74026 0.90588 nodecolor
39 61.748 22.9987 22.9987 ellipse_path stroke
0.015595 0.74026 0.90588 nodecolor
14 /Times-Roman set_font
29.5 58.048 moveto 19 (32) alignedtext
grestore
% 21->32
gsave
1 setlinewidth
0 0 0.43922 edgecolor
newpath 143.9196 231.6783 moveto
121.4413 195.2718 73.4432 117.533 51.0147 81.2072 curveto
stroke
grestore
% 33
gsave
0.015595 0.74026 0.90588 nodecolor
1092 61.748 22.9987 22.9987 ellipse_path fill
1 setlinewidth
filled
0.015595 0.74026 0.90588 nodecolor
1092 61.748 22.9987 22.9987 ellipse_path stroke
0.015595 0.74026 0.90588 nodecolor
14 /Times-Roman set_font
1082.5 58.048 moveto 19 (33) alignedtext
grestore
% 21->33
gsave
1 setlinewidth
0 0 0.43922 edgecolor
newpath 178.6734 246.6536 moveto
307.0982 220.6537 941.9877 92.1184 1069.625 66.2779 curveto
stroke
grestore
% 34
gsave
0.015595 0.74026 0.90588 nodecolor
975 61.748 22.9987 22.9987 ellipse_path fill
1 setlinewidth
filled
0.015595 0.74026 0.90588 nodecolor
975 61.748 22.9987 22.9987 ellipse_path stroke
0.015595 0.74026 0.90588 nodecolor
14 /Times-Roman set_font
965.5 58.048 moveto 19 (34) alignedtext
grestore
% 21->34
gsave
1 setlinewidth
0 0 0.43922 edgecolor
newpath 178.331 246.0771 moveto
295.2362 219.0282 835.8321 93.9479 952.689 66.9102 curveto
stroke
grestore
% 35
gsave
0.015595 0.74026 0.90588 nodecolor
858 61.748 22.9987 22.9987 ellipse_path fill
1 setlinewidth
filled
0.015595 0.74026 0.90588 nodecolor
858 61.748 22.9987 22.9987 ellipse_path stroke
0.015595 0.74026 0.90588 nodecolor
14 /Times-Roman set_font
848.5 58.048 moveto 19 (35) alignedtext
grestore
% 21->35
gsave
1 setlinewidth
0 0 0.43922 edgecolor
newpath 178.1689 245.2597 moveto
283.2785 216.8867 730.7045 96.1098 835.8257 67.7336 curveto
stroke
grestore
% 36
gsave
0.015595 0.74026 0.90588 nodecolor
741 61.748 22.9987 22.9987 ellipse_path fill
1 setlinewidth
filled
0.015595 0.74026 0.90588 nodecolor
741 61.748 22.9987 22.9987 ellipse_path stroke
0.015595 0.74026 0.90588 nodecolor
14 /Times-Roman set_font
731.5 58.048 moveto 19 (36) alignedtext
grestore
% 21->36
gsave
1 setlinewidth
0 0 0.43922 edgecolor
newpath 177.865 244.1613 moveto
270.1689 214.2618 627.4179 98.54 719.336 68.7655 curveto
stroke
grestore
% 37
gsave
0.015595 0.74026 0.90588 nodecolor
624 61.748 22.9987 22.9987 ellipse_path fill
1 setlinewidth
filled
0.015595 0.74026 0.90588 nodecolor
624 61.748 22.9987 22.9987 ellipse_path stroke
0.015595 0.74026 0.90588 nodecolor
14 /Times-Roman set_font
614.5 58.048 moveto 19 (37) alignedtext
grestore
% 21->37
gsave
1 setlinewidth
0 0 0.43922 edgecolor
newpath 177.3251 242.6093 moveto
255.3789 211.0049 524.9984 101.8343 602.8178 70.3248 curveto
stroke
grestore
% 38
gsave
0.015595 0.74026 0.90588 nodecolor
507 61.748 22.9987 22.9987 ellipse_path fill
1 setlinewidth
filled
0.015595 0.74026 0.90588 nodecolor
507 61.748 22.9987 22.9987 ellipse_path stroke
0.015595 0.74026 0.90588 nodecolor
14 /Times-Roman set_font
497.5 58.048 moveto 19 (38) alignedtext
grestore
% 21->38
gsave
1 setlinewidth
0 0 0.43922 edgecolor
newpath 176.132 240.3752 moveto
238.0417 206.9517 425.1495 105.937 486.9494 72.5728 curveto
stroke
grestore
% 39
gsave
0.015595 0.74026 0.90588 nodecolor
390 61.748 22.9987 22.9987 ellipse_path fill
1 setlinewidth
filled
0.015595 0.74026 0.90588 nodecolor
390 61.748 22.9987 22.9987 ellipse_path stroke
0.015595 0.74026 0.90588 nodecolor
14 /Times-Roman set_font
380.5 58.048 moveto 19 (39) alignedtext
grestore
% 21->39
gsave
1 setlinewidth
0 0 0.43922 edgecolor
newpath 173.973 236.6892 moveto
217.637 201.3296 328.8908 111.235 372.286 76.093 curveto
stroke
grestore
% 40
gsave
0.015595 0.74026 0.90588 nodecolor
273 61.748 22.9987 22.9987 ellipse_path fill
1 setlinewidth
filled
0.015595 0.74026 0.90588 nodecolor
273 61.748 22.9987 22.9987 ellipse_path stroke
0.015595 0.74026 0.90588 nodecolor
14 /Times-Roman set_font
263.5 58.048 moveto 19 (40) alignedtext
grestore
% 21->40
gsave
1 setlinewidth
0 0 0.43922 edgecolor
newpath 168.0804 231.6783 moveto
190.5587 195.2718 238.5568 117.533 260.9853 81.2072 curveto
stroke
grestore
% 22->31
gsave
1 setlinewidth
0 0 0.43922 edgecolor
newpath 51.0804 231.6783 moveto
73.5587 195.2718 121.5568 117.533 143.9853 81.2072 curveto
stroke
grestore
% 22->32
gsave
1 setlinewidth
0 0 0.43922 edgecolor
newpath 39 228.3863 moveto
39 191.9643 39 121.1596 39 84.6867 curveto
stroke
grestore
% 22->33
gsave
1 setlinewidth
0 0 0.43922 edgecolor
newpath 61.4806 247.1984 moveto
199.4817 222.3639 930.605 90.7923 1069.2826 65.8362 curveto
stroke
grestore
% 22->34
gsave
1 setlinewidth
0 0 0.43922 edgecolor
newpath 61.6734 246.6536 moveto
190.0982 220.6537 824.9877 92.1184 952.625 66.2779 curveto
stroke
grestore
% 22->35
gsave
1 setlinewidth
0 0 0.43922 edgecolor
newpath 61.331 246.0771 moveto
178.2362 219.0282 718.8321 93.9479 835.689 66.9102 curveto
stroke
grestore
% 22->36
gsave
1 setlinewidth
0 0 0.43922 edgecolor
newpath 61.1689 245.2597 moveto
166.2785 216.8867 613.7045 96.1098 718.8257 67.7336 curveto
stroke
grestore
% 22->37
gsave
1 setlinewidth
0 0 0.43922 edgecolor
newpath 60.865 244.1613 moveto
153.1689 214.2618 510.4179 98.54 602.336 68.7655 curveto
stroke
grestore
% 22->38
gsave
1 setlinewidth
0 0 0.43922 edgecolor
newpath 60.3251 242.6093 moveto
138.3789 211.0049 407.9984 101.8343 485.8178 70.3248 curveto
stroke
grestore
% 22->39
gsave
1 setlinewidth
0 0 0.43922 edgecolor
newpath 59.132 240.3752 moveto
121.0417 206.9517 308.1495 105.937 369.9494 72.5728 curveto
stroke
grestore
% 22->40
gsave
1 setlinewidth
0 0 0.43922 edgecolor
newpath 56.973 236.6892 moveto
100.637 201.3296 211.8908 111.235 255.286 76.093 curveto
stroke
grestore
% 23->31
gsave
1 setlinewidth
0 0 0.43922 edgecolor
newpath 1069.3266 246.6536 moveto
940.9018 220.6537 306.0123 92.1184 178.375 66.2779 curveto
stroke
grestore
% 23->32
gsave
1 setlinewidth
0 0 0.43922 edgecolor
newpath 1069.5194 247.1984 moveto
931.5183 222.3639 200.395 90.7923 61.7174 65.8362 curveto
stroke
grestore
% 23->33
gsave
1 setlinewidth
0 0 0.43922 edgecolor
newpath 1092 228.3863 moveto
1092 191.9643 1092 121.1596 1092 84.6867 curveto
stroke
grestore
% 23->34
gsave
1 setlinewidth
0 0 0.43922 edgecolor
newpath 1079.9196 231.6783 moveto
1057.4413 195.2718 1009.4432 117.533 987.0147 81.2072 curveto
stroke
grestore
% 23->35
gsave
1 setlinewidth
0 0 0.43922 edgecolor
newpath 1074.027 236.6892 moveto
1030.363 201.3296 919.1092 111.235 875.714 76.093 curveto
stroke
grestore
% 23->36
gsave
1 setlinewidth
0 0 0.43922 edgecolor
newpath 1071.868 240.3752 moveto
1009.9583 206.9517 822.8505 105.937 761.0506 72.5728 curveto
stroke
grestore
% 23->37
gsave
1 setlinewidth
0 0 0.43922 edgecolor
newpath 1070.6749 242.6093 moveto
992.6211 211.0049 723.0016 101.8343 645.1822 70.3248 curveto
stroke
grestore
% 23->38
gsave
1 setlinewidth
0 0 0.43922 edgecolor
newpath 1070.135 244.1613 moveto
977.8311 214.2618 620.5821 98.54 528.664 68.7655 curveto
stroke
grestore
% 23->39
gsave
1 setlinewidth
0 0 0.43922 edgecolor
newpath 1069.8311 245.2597 moveto
964.7215 216.8867 517.2955 96.1098 412.1743 67.7336 curveto
stroke
grestore
% 23->40
gsave
1 setlinewidth
0 0 0.43922 edgecolor
newpath 1069.669 246.0771 moveto
952.7638 219.0282 412.1679 93.9479 295.311 66.9102 curveto
stroke
grestore
% 24->31
gsave
1 setlinewidth
0 0 0.43922 edgecolor
newpath 952.669 246.0771 moveto
835.7638 219.0282 295.1679 93.9479 178.311 66.9102 curveto
stroke
grestore
% 24->32
gsave
1 setlinewidth
0 0 0.43922 edgecolor
newpath 952.3266 246.6536 moveto
823.9018 220.6537 189.0123 92.1184 61.375 66.2779 curveto
stroke
grestore
% 24->33
gsave
1 setlinewidth
0 0 0.43922 edgecolor
newpath 987.0804 231.6783 moveto
1009.5587 195.2718 1057.5568 117.533 1079.9853 81.2072 curveto
stroke
grestore
% 24->34
gsave
1 setlinewidth
0 0 0.43922 edgecolor
newpath 975 228.3863 moveto
975 191.9643 975 121.1596 975 84.6867 curveto
stroke
grestore
% 24->35
gsave
1 setlinewidth
0 0 0.43922 edgecolor
newpath 962.9196 231.6783 moveto
940.4413 195.2718 892.4432 117.533 870.0147 81.2072 curveto
stroke
grestore
% 24->36
gsave
1 setlinewidth
0 0 0.43922 edgecolor
newpath 957.027 236.6892 moveto
913.363 201.3296 802.1092 111.235 758.714 76.093 curveto
stroke
grestore
% 24->37
gsave
1 setlinewidth
0 0 0.43922 edgecolor
newpath 954.868 240.3752 moveto
892.9583 206.9517 705.8505 105.937 644.0506 72.5728 curveto
stroke
grestore
% 24->38
gsave
1 setlinewidth
0 0 0.43922 edgecolor
newpath 953.6749 242.6093 moveto
875.6211 211.0049 606.0016 101.8343 528.1822 70.3248 curveto
stroke
grestore
% 24->39
gsave
1 setlinewidth
0 0 0.43922 edgecolor
newpath 953.135 244.1613 moveto
860.8311 214.2618 503.5821 98.54 411.664 68.7655 curveto
stroke
grestore
% 24->40
gsave
1 setlinewidth
0 0 0.43922 edgecolor
newpath 952.8311 245.2597 moveto
847.7215 216.8867 400.2955 96.1098 295.1743 67.7336 curveto
stroke
grestore
% 25->31
gsave
1 setlinewidth
0 0 0.43922 edgecolor
newpath 835.8311 245.2597 moveto
730.7215 216.8867 283.2955 96.1098 178.1743 67.7336 curveto
stroke
grestore
% 25->32
gsave
1 setlinewidth
0 0 0.43922 edgecolor
newpath 835.669 246.0771 moveto
718.7638 219.0282 178.1679 93.9479 61.311 66.9102 curveto
stroke
grestore
% 25->33
gsave
1 setlinewidth
0 0 0.43922 edgecolor
newpath 875.973 236.6892 moveto
919.637 201.3296 1030.8908 111.235 1074.286 76.093 curveto
stroke
grestore
% 25->34
gsave
1 setlinewidth
0 0 0.43922 edgecolor
newpath 870.0804 231.6783 moveto
892.5587 195.2718 940.5568 117.533 962.9853 81.2072 curveto
stroke
grestore
% 25->35
gsave
1 setlinewidth
0 0 0.43922 edgecolor
newpath 858 228.3863 moveto
858 191.9643 858 121.1596 858 84.6867 curveto
stroke
grestore
% 25->36
gsave
1 setlinewidth
0 0 0.43922 edgecolor
newpath 845.9196 231.6783 moveto
823.4413 195.2718 775.4432 117.533 753.0147 81.2072 curveto
stroke
grestore
% 25->37
gsave
1 setlinewidth
0 0 0.43922 edgecolor
newpath 840.027 236.6892 moveto
796.363 201.3296 685.1092 111.235 641.714 76.093 curveto
stroke
grestore
% 25->38
gsave
1 setlinewidth
0 0 0.43922 edgecolor
newpath 837.868 240.3752 moveto
775.9583 206.9517 588.8505 105.937 527.0506 72.5728 curveto
stroke
grestore
% 25->39
gsave
1 setlinewidth
0 0 0.43922 edgecolor
newpath 836.6749 242.6093 moveto
758.6211 211.0049 489.0016 101.8343 411.1822 70.3248 curveto
stroke
grestore
% 25->40
gsave
1 setlinewidth
0 0 0.43922 edgecolor
newpath 836.135 244.1613 moveto
743.8311 214.2618 386.5821 98.54 294.664 68.7655 curveto
stroke
grestore
% 26->31
gsave
1 setlinewidth
0 0 0.43922 edgecolor
newpath 719.135 244.1613 moveto
626.8311 214.2618 269.5821 98.54 177.664 68.7655 curveto
stroke
grestore
% 26->32
gsave
1 setlinewidth
0 0 0.43922 edgecolor
newpath 718.8311 245.2597 moveto
613.7215 216.8867 166.2955 96.1098 61.1743 67.7336 curveto
stroke
grestore
% 26->33
gsave
1 setlinewidth
0 0 0.43922 edgecolor
newpath 761.132 240.3752 moveto
823.0417 206.9517 1010.1495 105.937 1071.9494 72.5728 curveto
stroke
grestore
% 26->34
gsave
1 setlinewidth
0 0 0.43922 edgecolor
newpath 758.973 236.6892 moveto
802.637 201.3296 913.8908 111.235 957.286 76.093 curveto
stroke
grestore
% 26->35
gsave
1 setlinewidth
0 0 0.43922 edgecolor
newpath 753.0804 231.6783 moveto
775.5587 195.2718 823.5568 117.533 845.9853 81.2072 curveto
stroke
grestore
% 26->36
gsave
1 setlinewidth
0 0 0.43922 edgecolor
newpath 741 228.3863 moveto
741 191.9643 741 121.1596 741 84.6867 curveto
stroke
grestore
% 26->37
gsave
1 setlinewidth
0 0 0.43922 edgecolor
newpath 728.9196 231.6783 moveto
706.4413 195.2718 658.4432 117.533 636.0147 81.2072 curveto
stroke
grestore
% 26->38
gsave
1 setlinewidth
0 0 0.43922 edgecolor
newpath 723.027 236.6892 moveto
679.363 201.3296 568.1092 111.235 524.714 76.093 curveto
stroke
grestore
% 26->39
gsave
1 setlinewidth
0 0 0.43922 edgecolor
newpath 720.868 240.3752 moveto
658.9583 206.9517 471.8505 105.937 410.0506 72.5728 curveto
stroke
grestore
% 26->40
gsave
1 setlinewidth
0 0 0.43922 edgecolor
newpath 719.6749 242.6093 moveto
641.6211 211.0049 372.0016 101.8343 294.1822 70.3248 curveto
stroke
grestore
% 27->31
gsave
1 setlinewidth
0 0 0.43922 edgecolor
newpath 602.6749 242.6093 moveto
524.6211 211.0049 255.0016 101.8343 177.1822 70.3248 curveto
stroke
grestore
% 27->32
gsave
1 setlinewidth
0 0 0.43922 edgecolor
newpath 602.135 244.1613 moveto
509.8311 214.2618 152.5821 98.54 60.664 68.7655 curveto
stroke
grestore
% 27->33
gsave
1 setlinewidth
0 0 0.43922 edgecolor
newpath 645.3251 242.6093 moveto
723.3789 211.0049 992.9984 101.8343 1070.8178 70.3248 curveto
stroke
grestore
% 27->34
gsave
1 setlinewidth
0 0 0.43922 edgecolor
newpath 644.132 240.3752 moveto
706.0417 206.9517 893.1495 105.937 954.9494 72.5728 curveto
stroke
grestore
% 27->35
gsave
1 setlinewidth
0 0 0.43922 edgecolor
newpath 641.973 236.6892 moveto
685.637 201.3296 796.8908 111.235 840.286 76.093 curveto
stroke
grestore
% 27->36
gsave
1 setlinewidth
0 0 0.43922 edgecolor
newpath 636.0804 231.6783 moveto
658.5587 195.2718 706.5568 117.533 728.9853 81.2072 curveto
stroke
grestore
% 27->37
gsave
1 setlinewidth
0 0 0.43922 edgecolor
newpath 624 228.3863 moveto
624 191.9643 624 121.1596 624 84.6867 curveto
stroke
grestore
% 27->38
gsave
1 setlinewidth
0 0 0.43922 edgecolor
newpath 611.9196 231.6783 moveto
589.4413 195.2718 541.4432 117.533 519.0147 81.2072 curveto
stroke
grestore
% 27->39
gsave
1 setlinewidth
0 0 0.43922 edgecolor
newpath 606.027 236.6892 moveto
562.363 201.3296 451.1092 111.235 407.714 76.093 curveto
stroke
grestore
% 27->40
gsave
1 setlinewidth
0 0 0.43922 edgecolor
newpath 603.868 240.3752 moveto
541.9583 206.9517 354.8505 105.937 293.0506 72.5728 curveto
stroke
grestore
% 28->31
gsave
1 setlinewidth
0 0 0.43922 edgecolor
newpath 486.868 240.3752 moveto
424.9583 206.9517 237.8505 105.937 176.0506 72.5728 curveto
stroke
grestore
% 28->32
gsave
1 setlinewidth
0 0 0.43922 edgecolor
newpath 485.6749 242.6093 moveto
407.6211 211.0049 138.0016 101.8343 60.1822 70.3248 curveto
stroke
grestore
% 28->33
gsave
1 setlinewidth
0 0 0.43922 edgecolor
newpath 528.865 244.1613 moveto
621.1689 214.2618 978.4179 98.54 1070.336 68.7655 curveto
stroke
grestore
% 28->34
gsave
1 setlinewidth
0 0 0.43922 edgecolor
newpath 528.3251 242.6093 moveto
606.3789 211.0049 875.9984 101.8343 953.8178 70.3248 curveto
stroke
grestore
% 28->35
gsave
1 setlinewidth
0 0 0.43922 edgecolor
newpath 527.132 240.3752 moveto
589.0417 206.9517 776.1495 105.937 837.9494 72.5728 curveto
stroke
grestore
% 28->36
gsave
1 setlinewidth
0 0 0.43922 edgecolor
newpath 524.973 236.6892 moveto
568.637 201.3296 679.8908 111.235 723.286 76.093 curveto
stroke
grestore
% 28->37
gsave
1 setlinewidth
0 0 0.43922 edgecolor
newpath 519.0804 231.6783 moveto
541.5587 195.2718 589.5568 117.533 611.9853 81.2072 curveto
stroke
grestore
% 28->38
gsave
1 setlinewidth
0 0 0.43922 edgecolor
newpath 507 228.3863 moveto
507 191.9643 507 121.1596 507 84.6867 curveto
stroke
grestore
% 28->39
gsave
1 setlinewidth
0 0 0.43922 edgecolor
newpath 494.9196 231.6783 moveto
472.4413 195.2718 424.4432 117.533 402.0147 81.2072 curveto
stroke
grestore
% 28->40
gsave
1 setlinewidth
0 0 0.43922 edgecolor
newpath 489.027 236.6892 moveto
445.363 201.3296 334.1092 111.235 290.714 76.093 curveto
stroke
grestore
% 29->31
gsave
1 setlinewidth
0 0 0.43922 edgecolor
newpath 372.027 236.6892 moveto
328.363 201.3296 217.1092 111.235 173.714 76.093 curveto
stroke
grestore
% 29->32
gsave
1 setlinewidth
0 0 0.43922 edgecolor
newpath 369.868 240.3752 moveto
307.9583 206.9517 120.8505 105.937 59.0506 72.5728 curveto
stroke
grestore
% 29->33
gsave
1 setlinewidth
0 0 0.43922 edgecolor
newpath 412.1689 245.2597 moveto
517.2785 216.8867 964.7045 96.1098 1069.8257 67.7336 curveto
stroke
grestore
% 29->34
gsave
1 setlinewidth
0 0 0.43922 edgecolor
newpath 411.865 244.1613 moveto
504.1689 214.2618 861.4179 98.54 953.336 68.7655 curveto
stroke
grestore
% 29->35
gsave
1 setlinewidth
0 0 0.43922 edgecolor
newpath 411.3251 242.6093 moveto
489.3789 211.0049 758.9984 101.8343 836.8178 70.3248 curveto
stroke
grestore
% 29->36
gsave
1 setlinewidth
0 0 0.43922 edgecolor
newpath 410.132 240.3752 moveto
472.0417 206.9517 659.1495 105.937 720.9494 72.5728 curveto
stroke
grestore
% 29->37
gsave
1 setlinewidth
0 0 0.43922 edgecolor
newpath 407.973 236.6892 moveto
451.637 201.3296 562.8908 111.235 606.286 76.093 curveto
stroke
grestore
% 29->38
gsave
1 setlinewidth
0 0 0.43922 edgecolor
newpath 402.0804 231.6783 moveto
424.5587 195.2718 472.5568 117.533 494.9853 81.2072 curveto
stroke
grestore
% 29->39
gsave
1 setlinewidth
0 0 0.43922 edgecolor
newpath 390 228.3863 moveto
390 191.9643 390 121.1596 390 84.6867 curveto
stroke
grestore
% 29->40
gsave
1 setlinewidth
0 0 0.43922 edgecolor
newpath 377.9196 231.6783 moveto
355.4413 195.2718 307.4432 117.533 285.0147 81.2072 curveto
stroke
grestore
% 30->31
gsave
1 setlinewidth
0 0 0.43922 edgecolor
newpath 260.9196 231.6783 moveto
238.4413 195.2718 190.4432 117.533 168.0147 81.2072 curveto
stroke
grestore
% 30->32
gsave
1 setlinewidth
0 0 0.43922 edgecolor
newpath 255.027 236.6892 moveto
211.363 201.3296 100.1092 111.235 56.714 76.093 curveto
stroke
grestore
% 30->33
gsave
1 setlinewidth
0 0 0.43922 edgecolor
newpath 295.331 246.0771 moveto
412.2362 219.0282 952.8321 93.9479 1069.689 66.9102 curveto
stroke
grestore
% 30->34
gsave
1 setlinewidth
0 0 0.43922 edgecolor
newpath 295.1689 245.2597 moveto
400.2785 216.8867 847.7045 96.1098 952.8257 67.7336 curveto
stroke
grestore
% 30->35
gsave
1 setlinewidth
0 0 0.43922 edgecolor
newpath 294.865 244.1613 moveto
387.1689 214.2618 744.4179 98.54 836.336 68.7655 curveto
stroke
grestore
% 30->36
gsave
1 setlinewidth
0 0 0.43922 edgecolor
newpath 294.3251 242.6093 moveto
372.3789 211.0049 641.9984 101.8343 719.8178 70.3248 curveto
stroke
grestore
% 30->37
gsave
1 setlinewidth
0 0 0.43922 edgecolor
newpath 293.132 240.3752 moveto
355.0417 206.9517 542.1495 105.937 603.9494 72.5728 curveto
stroke
grestore
% 30->38
gsave
1 setlinewidth
0 0 0.43922 edgecolor
newpath 290.973 236.6892 moveto
334.637 201.3296 445.8908 111.235 489.286 76.093 curveto
stroke
grestore
% 30->39
gsave
1 setlinewidth
0 0 0.43922 edgecolor
newpath 285.0804 231.6783 moveto
307.5587 195.2718 355.5568 117.533 377.9853 81.2072 curveto
stroke
grestore
% 30->40
gsave
1 setlinewidth
0 0 0.43922 edgecolor
newpath 273 228.3863 moveto
273 191.9643 273 121.1596 273 84.6867 curveto
stroke
grestore
endpage
showpage
grestore
%%PageTrailer
%%EndPage: 1
%%Trailer
%%Pages: 1
%%BoundingBox: 36 36 1175 799
end
restore
%%EOF
